<!DOCTYPE svg PUBLIC "-//W3C//DTD SVG 1.1//EN" "http://www.w3.org/Graphics/SVG/1.1/DTD/svg11.dtd">
<!-- Uploaded to: SVG Repo, www.svgrepo.com, Transformed by: SVG Repo Mixer Tools -->
<svg version="1.1" id="Capa_1" xmlns="http://www.w3.org/2000/svg" xmlns:xlink="http://www.w3.org/1999/xlink" viewBox="0 0 26 26" xml:space="preserve" width="800px" height="800px" fill="#000000">
<g id="SVGRepo_bgCarrier" stroke-width="0"/>
<g id="SVGRepo_tracerCarrier" stroke-linecap="round" stroke-linejoin="round"/>
<g id="SVGRepo_iconCarrier"> <g> <circle style="fill:#ffffff;" cx="5.5" cy="4.5" r="1.5"/> <circle style="fill:#ffffff;" cx="18.5" cy="4.5" r="1.5"/> <circle style="fill:#ffffff;" cx="24.5" cy="4.5" r="1.5"/> <circle style="fill:#ffffff;" cx="11.5" cy="4.5" r="2.5"/> <circle style="fill:#ffffff;" cx="5.5" cy="12.5" r="1.5"/> <circle style="fill:#ffffff;" cx="24.5" cy="12.5" r="1.5"/> <circle style="fill:#ffffff;" cx="23.5" cy="20.5" r="2"/> <circle style="fill:#ffffff;" cx="18.5" cy="12.5" r="2.5"/> <circle style="fill:#ffffff;" cx="5.5" cy="20.5" r="1.5"/> <circle style="fill:#ffffff;" cx="17.5" cy="20.5" r="1.5"/> <circle style="fill:#ffffff;" cx="11.5" cy="20.5" r="2.5"/> <polyline style="fill:none;stroke:#ffffff;stroke-width:2;stroke-linecap:round;stroke-linejoin:round;stroke-miterlimit:10;" points=" 25,25 1,25 1,1 "/> </g> </g>
</svg>