<!DOCTYPE svg PUBLIC "-//W3C//DTD SVG 1.1//EN" "http://www.w3.org/Graphics/SVG/1.1/DTD/svg11.dtd">
<!-- Uploaded to: SVG Repo, www.svgrepo.com, Transformed by: SVG Repo Mixer Tools -->
<svg xmlns:dc="http://purl.org/dc/elements/1.1/" xmlns:cc="http://creativecommons.org/ns#" xmlns:rdf="http://www.w3.org/1999/02/22-rdf-syntax-ns#" xmlns:svg="http://www.w3.org/2000/svg" xmlns="http://www.w3.org/2000/svg" xmlns:sodipodi="http://sodipodi.sourceforge.net/DTD/sodipodi-0.dtd" xmlns:inkscape="http://www.inkscape.org/namespaces/inkscape" width="800px" height="800px" viewBox="0 0 256 256" version="1.1" id="svg8" inkscape:version="0.92.3 (2405546, 2018-03-11)" sodipodi:docname="gala-display.svg" inkscape:export-xdpi="96" inkscape:export-ydpi="96" fill="#000000" stroke="#000000">
<g id="SVGRepo_bgCarrier" stroke-width="0"/>
<g id="SVGRepo_tracerCarrier" stroke-linecap="round" stroke-linejoin="round"/>
<g id="SVGRepo_iconCarrier"> <title id="title851">Gala icon set</title> <defs id="defs2"/> <sodipodi:namedview id="base" pagecolor="#ffffff" bordercolor="#666666" borderopacity="1.0" inkscape:pageopacity="0.0" inkscape:pageshadow="2" inkscape:zoom="1.979899" inkscape:cx="112.57006" inkscape:cy="23.81889" inkscape:document-units="px" inkscape:current-layer="layer1" inkscape:document-rotation="0" showgrid="true" units="px" inkscape:pagecheckerboard="true" inkscape:showpageshadow="false" inkscape:window-width="1854" inkscape:window-height="1016" inkscape:window-x="66" inkscape:window-y="27" inkscape:window-maximized="1" inkscape:snap-page="true" inkscape:snap-text-baseline="true" inkscape:snap-center="true" inkscape:snap-others="true" inkscape:snap-object-midpoints="true" inkscape:snap-midpoints="true" inkscape:snap-smooth-nodes="true" inkscape:snap-intersection-paths="true" inkscape:object-paths="true" inkscape:snap-bbox="true" inkscape:bbox-paths="true" inkscape:bbox-nodes="true" inkscape:snap-bbox-midpoints="true" inkscape:snap-bbox-edge-midpoints="true" showguides="true" inkscape:guide-bbox="true"> <inkscape:grid type="xygrid" id="grid862" empspacing="16"/> </sodipodi:namedview> <metadata id="metadata5"> <rdf:rdf> <cc:work rdf:about=""> <dc:format>image/svg+xml</dc:format> <dc:type rdf:resource="http://purl.org/dc/dcmitype/StillImage"/> <dc:title>Gala icon set</dc:title> <dc:source>https://github.com/sisyphusion/gala-icons</dc:source> <dc:subject> <rdf:bag/> </dc:subject> <dc:creator> <cc:agent> <dc:title>Jake Wells</dc:title> </cc:agent> </dc:creator> <dc:contributor> <cc:agent> <dc:title/> </cc:agent> </dc:contributor> </cc:work> </rdf:rdf> </metadata> <g inkscape:label="icon" inkscape:groupmode="layer" id="layer1"> <path style="fill:none;stroke:#ffffff;stroke-width:16;stroke-linecap:butt;stroke-linejoin:miter;stroke-miterlimit:4;stroke-dasharray:none;stroke-opacity:1" d="M 32.045863,15.996967 H 223.95413" id="path882" sodipodi:nodetypes="cc" inkscape:connector-curvature="0"/> <path style="fill:none;stroke:#ffffff;stroke-width:16;stroke-linecap:round;stroke-linejoin:round;stroke-miterlimit:4;stroke-dasharray:none;stroke-opacity:1" d="m 16.053507,31.994108 2e-6,143.926412" id="path999" sodipodi:nodetypes="cc" inkscape:connector-curvature="0"/> <path style="fill:none;stroke:#ffffff;stroke-width:16;stroke-linecap:round;stroke-linejoin:round;stroke-miterlimit:4;stroke-dasharray:none;stroke-opacity:1" d="M 239.94649,31.989325 V 175.92052" id="path1001" sodipodi:nodetypes="cc" inkscape:connector-curvature="0"/> <path id="path887" style="fill:none;stroke:#ffffff;stroke-width:16;stroke-linecap:round;stroke-linejoin:round;stroke-miterlimit:4;stroke-dasharray:none" d="M 32.045861,15.996971 A 15.992355,15.992355 0 0 0 16.053507,31.989325" inkscape:connector-curvature="0"/> <path id="path887-3" style="fill:none;stroke:#ffffff;stroke-width:16;stroke-linecap:round;stroke-linejoin:round;stroke-miterlimit:4;stroke-dasharray:none" d="m 223.95413,15.996971 a 15.992355,15.992355 0 0 1 15.99236,15.992354" inkscape:connector-curvature="0"/> <path style="fill:none;stroke:#ffffff;stroke-width:16;stroke-linecap:butt;stroke-linejoin:miter;stroke-miterlimit:4;stroke-dasharray:none;stroke-opacity:1" d="M 223.95413,191.91287 H 32.04587" id="path882-4" sodipodi:nodetypes="cc" inkscape:connector-curvature="0"/> <path id="path887-7" style="fill:none;stroke:#ffffff;stroke-width:16;stroke-linecap:round;stroke-linejoin:round;stroke-miterlimit:4;stroke-dasharray:none" d="m 223.95413,191.91287 a 15.992354,15.992354 0 0 0 15.99236,-15.99235" inkscape:connector-curvature="0"/> <path id="path887-3-8" style="fill:none;stroke:#ffffff;stroke-width:16;stroke-linecap:round;stroke-linejoin:round;stroke-miterlimit:4;stroke-dasharray:none" d="M 32.04587,191.91287 A 15.992354,15.992354 0 0 1 16.053504,175.92052" inkscape:connector-curvature="0"/> <path style="fill:none;stroke:#ffffff;stroke-width:16;stroke-linecap:round;stroke-linejoin:round;stroke-miterlimit:4;stroke-dasharray:none;stroke-opacity:1" d="M 191.96942,239.88994 H 64.030574" id="path882-4-4" sodipodi:nodetypes="cc" inkscape:connector-curvature="0"/> <path style="fill:none;stroke:#ffffff;stroke-width:16;stroke-linecap:round;stroke-linejoin:round;stroke-miterlimit:4;stroke-dasharray:none;stroke-opacity:1" d="m 143.99235,191.91288 v 47.97706" id="path1022" sodipodi:nodetypes="cc" inkscape:connector-curvature="0"/> <path style="fill:none;stroke:#ffffff;stroke-width:16;stroke-linecap:round;stroke-linejoin:round;stroke-miterlimit:4;stroke-dasharray:none;stroke-opacity:1" d="m 112.00764,191.91288 v 47.97706" id="path1022-5" sodipodi:nodetypes="cc" inkscape:connector-curvature="0"/> <path style="fill:none;stroke:#ffffff;stroke-width:16;stroke-linecap:round;stroke-linejoin:round;stroke-miterlimit:4;stroke-dasharray:none;stroke-opacity:1" d="M 16.053512,159.92816 H 239.94649" id="path1086" sodipodi:nodetypes="cc" inkscape:connector-curvature="0"/> </g> </g>
</svg>